{
  "project_info": {
    "project_number": "397203863873",
    "firebase_url": "https://hadiah-in.firebaseio.com",
    "project_id": "hadiah-in",
    "storage_bucket": "hadiah-in.appspot.com"
  },
  "client": [
    {
      "client_info": {
        "mobilesdk_app_id": "1:397203863873:android:22a7da0acfc4a1b7",
        "android_client_info": {
          "package_name": "id.sch.smktelkom_mlg.hadiahin"
        }
      },
      "oauth_client": [
        {
          "client_id": "397203863873-o6oqp7ur1st58ockkislc7b9q65ent7l.apps.googleusercontent.com",
          "client_type": 3
        }
      ],
      "api_key": [
        {
          "current_key": "AIzaSyAbUJi8WLeNUuQf9MbKsVVmCRhSmGVClkQ"
        }
      ],
      "services": {
        "analytics_service": {
          "status": 1
        },
        "appinvite_service": {
          "status": 1,
          "other_platform_oauth_client": []
        },
        "ads_service": {
          "status": 2
        }
      }
    },
    {
      "client_info": {
        "mobilesdk_app_id": "1:397203863873:android:bb26f67d4c724e6c",
        "android_client_info": {
          "package_name": "in.hadiah.kelompok_3.id.sch.smktelkom_mlg.hadiahin"
        }
      },
      "oauth_client": [
        {
          "client_id": "397203863873-3g56q8ilb0pf4eq9pggdf6jd5dod3t6s.apps.googleusercontent.com",
          "client_type": 1,
          "android_info": {
            "package_name": "in.hadiah.kelompok_3.id.sch.smktelkom_mlg.hadiahin",
            "certificate_hash": "3cc5a952cf8a102952bb16aec7d32d1b0f79c947"
          }
        },
        {
          "client_id": "397203863873-o6oqp7ur1st58ockkislc7b9q65ent7l.apps.googleusercontent.com",
          "client_type": 3
        }
      ],
      "api_key": [
        {
          "current_key": "AIzaSyAbUJi8WLeNUuQf9MbKsVVmCRhSmGVClkQ"
        }
      ],
      "services": {
        "analytics_service": {
          "status": 1
        },
        "appinvite_service": {
          "status": 2,
          "other_platform_oauth_client": [
            {
              "client_id": "397203863873-o6oqp7ur1st58ockkislc7b9q65ent7l.apps.googleusercontent.com",
              "client_type": 3
            }
          ]
        },
        "ads_service": {
          "status": 2
        }
      }
    }
  ],
  "configuration_version": "1"
}